{
    "threads": 32,
    "outbase": "csat.chr2_prots",
    "ortho_opt": " -M msa ",
    "proteins": [
        "prots.chr2/STHa.chr2.fasta",
        "prots.chr2/SHH5a.chr2.fasta",
        "prots.chr2/GRMa.chr2.fasta",
        "prots.chr2/UFBa.chr2.fasta",
        "prots.chr2/UFBb.chr2.fasta",
        "prots.chr2/SAN2b.chr2.fasta",
        "prots.chr2/GRMb.chr2.fasta",
        "prots.chr2/MBFBa.chr2.fasta",
        "prots.chr2/KOMPb.chr2.fasta",
        "prots.chr2/SVA12a.chr2.fasta",
        "prots.chr2/CannabisSativa.fasta",
        "prots.chr2/SKFBa.chr2.fasta",
        "prots.chr2/PPFBa.chr2.fasta",
        "prots.chr2/SDFBb.chr2.fasta",
        "prots.chr2/BOAXa.chr2.fasta",
        "prots.chr2/LotusJaponicus.fasta",
        "prots.chr2/H3S7b.chr2.fasta",
        "prots.chr2/H3S1b.chr2.fasta",
        "prots.chr2/EH23b.chr2.fasta",
        "prots.chr2/H3S7a.chr2.fasta",
        "prots.chr2/NLv1a.chr2.fasta",
        "prots.chr2/YMv2a.chr2.fasta",
        "prots.chr2/WCFBb.chr2.fasta",
        "prots.chr2/H3S1a.chr2.fasta",
        "prots.chr2/SDFBa.chr2.fasta",
        "prots.chr2/TWFBa.chr2.fasta",
        "prots.chr2/MalusDomestica.fasta",
        "prots.chr2/EH23a.chr2.fasta",
        "prots.chr2/BCMa.chr2.fasta",
        "prots.chr2/TKFBa.chr2.fasta",
        "prots.chr2/SVA12b.chr2.fasta",
        "prots.chr2/MBSVb.chr2.fasta",
        "prots.chr2/SN1v3b.chr2.fasta",
        "prots.chr2/NLv1b.chr2.fasta",
        "prots.chr2/DPFBa.chr2.fasta",
        "prots.chr2/MM3v1b.chr2.fasta",
        "prots.chr2/TWFBb.chr2.fasta",
        "prots.chr2/DPSVa.chr2.fasta",
        "prots.chr2/STHb.chr2.fasta",
        "prots.chr2/COFBa.chr2.fasta",
        "prots.chr2/TKFBb.chr2.fasta",
        "prots.chr2/FragariaVesca.fasta",
        "prots.chr2/GERv1a.chr2.fasta",
        "prots.chr2/WHWa.chr2.fasta",
        "prots.chr2/MM3v1a.chr2.fasta",
        "prots.chr2/FCS1b.chr2.fasta",
        "prots.chr2/MBSVa.chr2.fasta",
        "prots.chr2/OFBb.chr2.fasta",
        "prots.chr2/SKFBb.chr2.fasta",
        "prots.chr2/DPFBb.chr2.fasta",
        "prots.chr2/DPSVb.chr2.fasta",
        "prots.chr2/PPFBb.chr2.fasta",
        "prots.chr2/RosaChinensis.fasta",
        "prots.chr2/TWSVa.chr2.fasta",
        "prots.chr2/KOMPa.chr2.fasta",
        "prots.chr2/AH3Ma.chr2.fasta",
        "prots.chr2/PrunusPersica.fasta",
        "prots.chr2/SVA6a.chr2.fasta",
        "prots.chr2/AH3Mb.chr2.fasta",
        "prots.chr2/COSVa.chr2.fasta",
        "prots.chr2/WHWb.chr2.fasta",
        "prots.chr2/COFBb.chr2.fasta",
        "prots.chr2/SODLa.chr2.fasta",
        "prots.chr2/MBFBb.chr2.fasta",
        "prots.chr2/SN1v3a.chr2.fasta",
        "prots.chr2/TWSVb.chr2.fasta",
        "prots.chr2/YMv2b.chr2.fasta",
        "prots.chr2/KCDv1b.chr2.fasta",
        "prots.chr2/BOAXb.chr2.fasta",
        "prots.chr2/GERv1b.chr2.fasta",
        "prots.chr2/ArabidopsisThaliana.fasta",
        "prots.chr2/SHH5b.chr2.fasta",
        "prots.chr2/QuercusLobata.fasta",
        "prots.chr2/S8Hb.chr2.fasta",
        "prots.chr2/SAN2a.chr2.fasta",
        "prots.chr2/OFBa.chr2.fasta",
        "prots.chr2/WCFBa.chr2.fasta",
        "prots.chr2/KCDv1a.chr2.fasta",
        "prots.chr2/BCMb.chr2.fasta",
        "prots.chr2/SVA6b.chr2.fasta",
        "prots.chr2/SODLb.chr2.fasta",
        "prots.chr2/SZFBb.chr2.fasta",
        "prots.chr2/S8Ha.chr2.fasta",
        "prots.chr2/SZFBa.chr2.fasta",
        "prots.chr2/FCS1a.chr2.fasta",
        "prots.chr2/COSVb.chr2.fasta"
    ]
}