{
    "threads": 32,
    "outbase": "csat.chr4_prots",
    "ortho_opt": " -M msa ",
    "proteins": [
        "prots.chr4/SVA6a.chr4.fasta",
        "prots.chr4/MBSVb.chr4.fasta",
        "prots.chr4/AH3Ma.chr4.fasta",
        "prots.chr4/WHWa.chr4.fasta",
        "prots.chr4/SAN2b.chr4.fasta",
        "prots.chr4/PPFBa.chr4.fasta",
        "prots.chr4/YMv2a.chr4.fasta",
        "prots.chr4/SN1v3a.chr4.fasta",
        "prots.chr4/TWSVb.chr4.fasta",
        "prots.chr4/OFBb.chr4.fasta",
        "prots.chr4/EH23b.chr4.fasta",
        "prots.chr4/TWSVa.chr4.fasta",
        "prots.chr4/CannabisSativa.fasta",
        "prots.chr4/KCDv1a.chr4.fasta",
        "prots.chr4/COFBb.chr4.fasta",
        "prots.chr4/OFBa.chr4.fasta",
        "prots.chr4/LotusJaponicus.fasta",
        "prots.chr4/SN1v3b.chr4.fasta",
        "prots.chr4/KOMPa.chr4.fasta",
        "prots.chr4/UFBa.chr4.fasta",
        "prots.chr4/TKFBb.chr4.fasta",
        "prots.chr4/UFBb.chr4.fasta",
        "prots.chr4/SVA6b.chr4.fasta",
        "prots.chr4/KOMPb.chr4.fasta",
        "prots.chr4/MalusDomestica.fasta",
        "prots.chr4/BOAXb.chr4.fasta",
        "prots.chr4/SVA12b.chr4.fasta",
        "prots.chr4/MBFBb.chr4.fasta",
        "prots.chr4/SVA12a.chr4.fasta",
        "prots.chr4/GERv1b.chr4.fasta",
        "prots.chr4/FCS1a.chr4.fasta",
        "prots.chr4/SAN2a.chr4.fasta",
        "prots.chr4/MM3v1a.chr4.fasta",
        "prots.chr4/MM3v1b.chr4.fasta",
        "prots.chr4/NLv1a.chr4.fasta",
        "prots.chr4/MBFBa.chr4.fasta",
        "prots.chr4/H3S7b.chr4.fasta",
        "prots.chr4/TWFBb.chr4.fasta",
        "prots.chr4/GRMa.chr4.fasta",
        "prots.chr4/FCS1b.chr4.fasta",
        "prots.chr4/FragariaVesca.fasta",
        "prots.chr4/STHb.chr4.fasta",
        "prots.chr4/BCMa.chr4.fasta",
        "prots.chr4/SZFBb.chr4.fasta",
        "prots.chr4/WHWb.chr4.fasta",
        "prots.chr4/PPFBb.chr4.fasta",
        "prots.chr4/SDFBa.chr4.fasta",
        "prots.chr4/KCDv1b.chr4.fasta",
        "prots.chr4/COSVa.chr4.fasta",
        "prots.chr4/NLv1b.chr4.fasta",
        "prots.chr4/DPSVb.chr4.fasta",
        "prots.chr4/DPSVa.chr4.fasta",
        "prots.chr4/GERv1a.chr4.fasta",
        "prots.chr4/WCFBa.chr4.fasta",
        "prots.chr4/SODLb.chr4.fasta",
        "prots.chr4/BOAXa.chr4.fasta",
        "prots.chr4/DPFBb.chr4.fasta",
        "prots.chr4/RosaChinensis.fasta",
        "prots.chr4/COSVb.chr4.fasta",
        "prots.chr4/WCFBb.chr4.fasta",
        "prots.chr4/TWFBa.chr4.fasta",
        "prots.chr4/H3S1a.chr4.fasta",
        "prots.chr4/SODLa.chr4.fasta",
        "prots.chr4/MBSVa.chr4.fasta",
        "prots.chr4/H3S1b.chr4.fasta",
        "prots.chr4/PrunusPersica.fasta",
        "prots.chr4/COFBa.chr4.fasta",
        "prots.chr4/SDFBb.chr4.fasta",
        "prots.chr4/GRMb.chr4.fasta",
        "prots.chr4/SKFBb.chr4.fasta",
        "prots.chr4/SZFBa.chr4.fasta",
        "prots.chr4/S8Hb.chr4.fasta",
        "prots.chr4/H3S7a.chr4.fasta",
        "prots.chr4/YMv2b.chr4.fasta",
        "prots.chr4/DPFBa.chr4.fasta",
        "prots.chr4/ArabidopsisThaliana.fasta",
        "prots.chr4/S8Ha.chr4.fasta",
        "prots.chr4/QuercusLobata.fasta",
        "prots.chr4/AH3Mb.chr4.fasta",
        "prots.chr4/TKFBa.chr4.fasta",
        "prots.chr4/EH23a.chr4.fasta",
        "prots.chr4/STHa.chr4.fasta",
        "prots.chr4/SHH5a.chr4.fasta",
        "prots.chr4/SKFBa.chr4.fasta",
        "prots.chr4/BCMb.chr4.fasta",
        "prots.chr4/SHH5b.chr4.fasta"
    ]
}