{
    "proteins": [
        "v2.1/79X.v2.fasta",
        "v2.1/ABAC.v2.fasta",
        "v2.1/ABC.v2.fasta",
        "v2.1/ACBD.v2.fasta",
        "v2.1/ACDC.v2.fasta",
        "v2.1/AH3Ma.v2.fasta",
        "v2.1/AH3Mb.v2.fasta",
        "v2.1/AmborellaTrichopoda.Plaza.fasta",
        "v2.1/AquilegiaOxysepala.Plaza.fasta",
        "v2.1/ArabidopsisThaliana.Plaza.fasta",
        "v2.1/BBKH.v2.fasta",
        "v2.1/BCMa.v2.fasta",
        "v2.1/BCMb.v2.fasta",
        "v2.1/BH44.v2.fasta",
        "v2.1/BH4.v2.fasta",
        "v2.1/BH55.v2.fasta",
        "v2.1/BLCv1a.v2.fasta",
        "v2.1/BLCv1b.v2.fasta",
        "v2.1/BLYS.v2.fasta",
        "v2.1/BOAXa.v2.fasta",
        "v2.1/BOAXb.v2.fasta",
        "v2.1/CALO.v2.fasta",
        "v2.1/CannabisSativa.Plaza.fasta",
        "v2.1/CANN.v2.fasta",
        "v2.1/CarpinusFangiana.Plaza.fasta",
        "v2.1/CaryaIllinoinensis.Plaza.fasta",
        "v2.1/CBDRX.v2.fasta",
        "v2.1/CBIO2.v2.fasta",
        "v2.1/CeratophyllumDemersum.Plaza.fasta",
        "v2.1/CHM9.v2.fasta",
        "v2.1/CHMD3.v2.fasta",
        "v2.1/CHMD5.v2.fasta",
        "v2.1/CitrullusLanatus.Plaza.fasta",
        "v2.1/CNBv1a.v2.fasta",
        "v2.1/CNBv1b.v2.fasta",
        "v2.1/COFBa.v2.fasta",
        "v2.1/COFBb.v2.fasta",
        "v2.1/CorylusAvellana.Plaza.fasta",
        "v2.1/COSVa.v2.fasta",
        "v2.1/COSVb.v2.fasta",
        "v2.1/CST53.v2.fasta",
        "v2.1/CST8.v2.fasta",
        "v2.1/CucumisMelo.Plaza.fasta",
        "v2.1/CucumisSativus.Plaza.fasta",
        "v2.1/DCHCC.v2.fasta",
        "v2.1/DPFBa.v2.fasta",
        "v2.1/DPFBb.v2.fasta",
        "v2.1/DPSVa.v2.fasta",
        "v2.1/DPSVb.v2.fasta",
        "v2.1/DRBP.v2.fasta",
        "v2.1/EH23a.v2.fasta",
        "v2.1/EH23b.v2.fasta",
        "v2.1/ERB.v2.fasta",
        "v2.1/FB191.v2.fasta",
        "v2.1/FB30.v2.fasta",
        "v2.1/FBHO.v2.fasta",
        "v2.1/FCS1a.v2.fasta",
        "v2.1/FCS1b.v2.fasta",
        "v2.1/FIMv1a.v2.fasta",
        "v2.1/FIMv1b.v2.fasta",
        "v2.1/FIN.v2.fasta",
        "v2.1/FMv1a.v2.fasta",
        "v2.1/FMv1b.v2.fasta",
        "v2.1/FOG.v2.fasta",
        "v2.1/FragariaVesca.Plaza.fasta",
        "v2.1/GERv1a.v2.fasta",
        "v2.1/GERv1b.v2.fasta",
        "v2.1/GMO.v2.fasta",
        "v2.1/GRMa.v2.fasta",
        "v2.1/GRMb.v2.fasta",
        "v2.1/GSC.v2.fasta",
        "v2.1/H3S1a.v2.fasta",
        "v2.1/H3S1b.v2.fasta",
        "v2.1/H3S7a.v2.fasta",
        "v2.1/H3S7b.v2.fasta",
        "v2.1/HO40.v2.fasta",
        "v2.1/HumulusLupulus.PRJNA562558.fasta",
        "v2.1/I3.v2.fasta",
        "v2.1/I52.v2.fasta",
        "v2.1/I53.v2.fasta",
        "v2.1/I59.v2.fasta",
        "v2.1/I61.v2.fasta",
        "v2.1/I68.v2.fasta",
        "v2.1/I75.v2.fasta",
        "v2.1/I78.v2.fasta",
        "v2.1/ITLv1a.v2.fasta",
        "v2.1/ITLv1b.v2.fasta",
        "v2.1/JLDSH.v2.fasta",
        "v2.1/JLD.v2.fasta",
        "v2.1/JLF.v2.fasta",
        "v2.1/JLM.v2.fasta",
        "v2.1/JL.v2.fasta",
        "v2.1/KCDv1a.v2.fasta",
        "v2.1/KCDv1b.v2.fasta",
        "v2.1/KOMPa.v2.fasta",
        "v2.1/KOMPb.v2.fasta",
        "v2.1/LotusJaponicus.Plaza.fasta",
        "v2.1/LP10.v2.fasta",
        "v2.1/LP6.v2.fasta",
        "v2.1/MagnoliaBiondii.Plaza.fasta",
        "v2.1/MalusDomestica.Plaza.fasta",
        "v2.1/ManihotEsculenta.Plaza.fasta",
        "v2.1/MBFBa.v2.fasta",
        "v2.1/MBFBb.v2.fasta",
        "v2.1/MBSVa.v2.fasta",
        "v2.1/MBSVb.v2.fasta",
        "v2.1/MM3v1a.v2.fasta",
        "v2.1/MM3v1b.v2.fasta",
        "v2.1/MNDB.v2.fasta",
        "v2.1/MorusNotabilis.GCF_000414095.1.fasta",
        "v2.1/NelumboNucifera.Plaza.fasta",
        "v2.1/NLv1a.v2.fasta",
        "v2.1/NLv1b.v2.fasta",
        "v2.1/OFBa.v2.fasta",
        "v2.1/OFBb.v2.fasta",
        "v2.1/OFP5.v2.fasta",
        "v2.1/OryzaSativaJaponica.Plaza.fasta",
        "v2.1/P20.v2.fasta",
        "v2.1/P22.v2.fasta",
        "v2.1/ParasponiaAndersonii.GCA_002914805.1.fasta",
        "v2.1/PBBK.v2.fasta",
        "v2.1/PK.v2.fasta",
        "v2.1/PPFBa.v2.fasta",
        "v2.1/PPFBb.v2.fasta",
        "v2.1/PrunusPersica.Plaza.fasta",
        "v2.1/PTK32.v2.fasta",
        "v2.1/PURD.v2.fasta",
        "v2.1/PURP.v2.fasta",
        "v2.1/QuercusLobata.Plaza.fasta",
        "v2.1/RosaChinensis.Plaza.fasta",
        "v2.1/S8H2LR.v2.fasta",
        "v2.1/S8Ha.v2.fasta",
        "v2.1/S8Hb.v2.fasta",
        "v2.1/S8LR.v2.fasta",
        "v2.1/SAN2a.v2.fasta",
        "v2.1/SAN2b.v2.fasta",
        "v2.1/SCFB.v2.fasta",
        "v2.1/SDFBa.v2.fasta",
        "v2.1/SDFBb.v2.fasta",
        "v2.1/SDI.v2.fasta",
        "v2.1/SechiumEdule.Plaza.fasta",
        "v2.1/SG123.v2.fasta",
        "v2.1/SGVA.v2.fasta",
        "v2.1/SH50.v2.fasta",
        "v2.1/SHH24.v2.fasta",
        "v2.1/SHH5a.v2.fasta",
        "v2.1/SHH5b.v2.fasta",
        "v2.1/SHLR.v2.fasta",
        "v2.1/SK88.v2.fasta",
        "v2.1/SKFBa.v2.fasta",
        "v2.1/SKFBb.v2.fasta",
        "v2.1/SKSV.v2.fasta",
        "v2.1/SKTZ.v2.fasta",
        "v2.1/SMSQ.v2.fasta",
        "v2.1/SN1v3a.v2.fasta",
        "v2.1/SN1v3b.v2.fasta",
        "v2.1/SODLa.v2.fasta",
        "v2.1/SODLb.v2.fasta",
        "v2.1/SSA1.v2.fasta",
        "v2.1/SSA2.v2.fasta",
        "v2.1/SSHS.v2.fasta",
        "v2.1/SSH.v2.fasta",
        "v2.1/SSLR.v2.fasta",
        "v2.1/SSV.v2.fasta",
        "v2.1/STHa.v2.fasta",
        "v2.1/STHb.v2.fasta",
        "v2.1/STLR.v2.fasta",
        "v2.1/SUNDR.v2.fasta",
        "v2.1/SUV8.v2.fasta",
        "v2.1/SV2.v2.fasta",
        "v2.1/SVA12a.v2.fasta",
        "v2.1/SVA12b.v2.fasta",
        "v2.1/SVA6a.v2.fasta",
        "v2.1/SVA6b.v2.fasta",
        "v2.1/SZFBa.v2.fasta",
        "v2.1/SZFBb.v2.fasta",
        "v2.1/TIBv1a.v2.fasta",
        "v2.1/TIBv1b.v2.fasta",
        "v2.1/TK10.v2.fasta",
        "v2.1/TK7.v2.fasta",
        "v2.1/TKFBa.v2.fasta",
        "v2.1/TKFBb.v2.fasta",
        "v2.1/TremaOrientale.GCA_002914845.1.fasta",
        "v2.1/TrochodendronAralioides.Plaza.fasta",
        "v2.1/TRWR.v2.fasta",
        "v2.1/TS13.v2.fasta",
        "v2.1/TST192.v2.fasta",
        "v2.1/TST58.v2.fasta",
        "v2.1/TURv1a.v2.fasta",
        "v2.1/TURv1b.v2.fasta",
        "v2.1/TWFBa.v2.fasta",
        "v2.1/TWFBb.v2.fasta",
        "v2.1/TWSVa.v2.fasta",
        "v2.1/TWSVb.v2.fasta",
        "v2.1/UFBa.v2.fasta",
        "v2.1/UFBb.v2.fasta",
        "v2.1/URKL.v2.fasta",
        "v2.1/USV.v2.fasta",
        "v2.1/VacciniumMacrocarpon.Plaza.fasta",
        "v2.1/VitisVinifera.Plaza.fasta",
        "v2.1/W103.v2.fasta",
        "v2.1/W19LR.v2.fasta",
        "v2.1/WCFBa.v2.fasta",
        "v2.1/WCFBb.v2.fasta",
        "v2.1/WCSV.v2.fasta",
        "v2.1/WC.v2.fasta",
        "v2.1/WFv1a.v2.fasta",
        "v2.1/WFv1b.v2.fasta",
        "v2.1/WH106.v2.fasta",
        "v2.1/WH72.v2.fasta",
        "v2.1/WH94.v2.fasta",
        "v2.1/WH96.v2.fasta",
        "v2.1/WHLR.v2.fasta",
        "v2.1/WHWa.v2.fasta",
        "v2.1/WHWb.v2.fasta",
        "v2.1/WIv1a.v2.fasta",
        "v2.1/WIv1b.v2.fasta",
        "v2.1/WLR.v2.fasta",
        "v2.1/WolffiaAustraliana.HPIWA8730.fasta",
        "v2.1/YMMv1a.v2.fasta",
        "v2.1/YMMv1b.v2.fasta",
        "v2.1/YMv2a.v2.fasta",
        "v2.1/YMv2b.v2.fasta",
        "v2.1/ZiziphusJujuba.GCF_031755915.1.fasta"
    ],
    "outbase": "csat.v2.1",
    "threads": 16
}
