{
    "proteins": [
        "csat_prots/BCMa.fasta",
        "csat_prots/BCMb.fasta",
        "csat_prots/BOAXa.fasta",
        "csat_prots/BOAXb.fasta",
        "csat_prots/GRMa.fasta",
        "csat_prots/GRMb.fasta",
        "csat_prots/KOMPa.fasta",
        "csat_prots/KOMPb.fasta",
        "csat_prots/TIBv1a.fasta",
        "csat_prots/TIBv1b.fasta",
        "csat_prots/WFv1a.fasta",
        "csat_prots/WFv1b.fasta",
        "csat_prots/WIv1a.fasta",
        "csat_prots/WIv1b.fasta",
        "csat_prots/YMMv1a.fasta",
        "csat_prots/YMMv1b.fasta",
        "csat_prots/YMv2a.fasta",
        "csat_prots/YMv2b.fasta",
        "csat_prots/ABAC.fasta",
        "csat_prots/CANN.fasta",
        "csat_prots/CBDRX.fasta",
        "csat_prots/CBIO2.fasta",
        "csat_prots/FIN.fasta",
        "csat_prots/JL.fasta",
        "csat_prots/JLD.fasta",
        "csat_prots/JLDSH.fasta",
        "csat_prots/JLF.fasta",
        "csat_prots/JLM.fasta",
        "csat_prots/PBBK.fasta",
        "csat_prots/PK.fasta",
        "csat_prots/79X.fasta",
        "csat_prots/ABC.fasta",
        "csat_prots/ACBD.fasta",
        "csat_prots/ACDC.fasta",
        "csat_prots/BBKH.fasta",
        "csat_prots/BH4.fasta",
        "csat_prots/BH44.fasta",
        "csat_prots/BH55.fasta",
        "csat_prots/BLYS.fasta",
        "csat_prots/CALO.fasta",
        "csat_prots/CHM9.fasta",
        "csat_prots/CHMD3.fasta",
        "csat_prots/CHMD5.fasta",
        "csat_prots/COFBa.fasta",
        "csat_prots/COFBb.fasta",
        "csat_prots/COSVa.fasta",
        "csat_prots/COSVb.fasta",
        "csat_prots/CST53.fasta",
        "csat_prots/CST8.fasta",
        "csat_prots/DCHCC.fasta",
        "csat_prots/DPFBa.fasta",
        "csat_prots/DPFBb.fasta",
        "csat_prots/DPSVa.fasta",
        "csat_prots/DPSVb.fasta",
        "csat_prots/DRBP.fasta",
        "csat_prots/EH23a.fasta",
        "csat_prots/EH23b.fasta",
        "csat_prots/ERB.fasta",
        "csat_prots/FB191.fasta",
        "csat_prots/FB30.fasta",
        "csat_prots/FBHO.fasta",
        "csat_prots/FOG.fasta",
        "csat_prots/GMO.fasta",
        "csat_prots/GSC.fasta",
        "csat_prots/HO40.fasta",
        "csat_prots/I3.fasta",
        "csat_prots/I52.fasta",
        "csat_prots/I53.fasta",
        "csat_prots/I59.fasta",
        "csat_prots/I61.fasta",
        "csat_prots/I68.fasta",
        "csat_prots/I75.fasta",
        "csat_prots/I78.fasta",
        "csat_prots/LP10.fasta",
        "csat_prots/LP6.fasta",
        "csat_prots/MBFBa.fasta",
        "csat_prots/MBFBb.fasta",
        "csat_prots/MBSVa.fasta",
        "csat_prots/MBSVb.fasta",
        "csat_prots/MNDB.fasta",
        "csat_prots/OFBa.fasta",
        "csat_prots/OFBb.fasta",
        "csat_prots/OFP5.fasta",
        "csat_prots/P20.fasta",
        "csat_prots/P22.fasta",
        "csat_prots/PPFBa.fasta",
        "csat_prots/PPFBb.fasta",
        "csat_prots/PTK32.fasta",
        "csat_prots/PURD.fasta",
        "csat_prots/PURP.fasta",
        "csat_prots/S8H2LR.fasta",
        "csat_prots/S8Ha.fasta",
        "csat_prots/S8Hb.fasta",
        "csat_prots/S8LR.fasta",
        "csat_prots/SCFB.fasta",
        "csat_prots/SDFBa.fasta",
        "csat_prots/SDFBb.fasta",
        "csat_prots/SDI.fasta",
        "csat_prots/SG123.fasta",
        "csat_prots/SGVA.fasta",
        "csat_prots/SH50.fasta",
        "csat_prots/SHH24.fasta",
        "csat_prots/SHH5a.fasta",
        "csat_prots/SHH5b.fasta",
        "csat_prots/SHLR.fasta",
        "csat_prots/SK88.fasta",
        "csat_prots/SKFBa.fasta",
        "csat_prots/SKFBb.fasta",
        "csat_prots/SKSV.fasta",
        "csat_prots/SKTZ.fasta",
        "csat_prots/SMSQ.fasta",
        "csat_prots/SSA1.fasta",
        "csat_prots/SSA2.fasta",
        "csat_prots/SSH.fasta",
        "csat_prots/SSHS.fasta",
        "csat_prots/SSLR.fasta",
        "csat_prots/SSV.fasta",
        "csat_prots/STHa.fasta",
        "csat_prots/STHb.fasta",
        "csat_prots/STLR.fasta",
        "csat_prots/SUNDR.fasta",
        "csat_prots/SUV8.fasta",
        "csat_prots/SV2.fasta",
        "csat_prots/SVA12a.fasta",
        "csat_prots/SVA12b.fasta",
        "csat_prots/SVA6a.fasta",
        "csat_prots/SVA6b.fasta",
        "csat_prots/SZFBa.fasta",
        "csat_prots/SZFBb.fasta",
        "csat_prots/TK10.fasta",
        "csat_prots/TK7.fasta",
        "csat_prots/TKFBa.fasta",
        "csat_prots/TKFBb.fasta",
        "csat_prots/TRWR.fasta",
        "csat_prots/TS13.fasta",
        "csat_prots/TST192.fasta",
        "csat_prots/TST58.fasta",
        "csat_prots/TWFBa.fasta",
        "csat_prots/TWFBb.fasta",
        "csat_prots/TWSVa.fasta",
        "csat_prots/TWSVb.fasta",
        "csat_prots/UFBa.fasta",
        "csat_prots/UFBb.fasta",
        "csat_prots/URKL.fasta",
        "csat_prots/USV.fasta",
        "csat_prots/W103.fasta",
        "csat_prots/W19LR.fasta",
        "csat_prots/WC.fasta",
        "csat_prots/WCFBa.fasta",
        "csat_prots/WCFBb.fasta",
        "csat_prots/WCSV.fasta",
        "csat_prots/WH106.fasta",
        "csat_prots/WH72.fasta",
        "csat_prots/WH94.fasta",
        "csat_prots/WH96.fasta",
        "csat_prots/WHLR.fasta",
        "csat_prots/WLR.fasta",
        "csat_prots/AH3Ma.fasta",
        "csat_prots/AH3Mb.fasta",
        "csat_prots/BLCv1a.fasta",
        "csat_prots/BLCv1b.fasta",
        "csat_prots/CNBv1a.fasta",
        "csat_prots/CNBv1b.fasta",
        "csat_prots/FCS1a.fasta",
        "csat_prots/FCS1b.fasta",
        "csat_prots/FIMv1a.fasta",
        "csat_prots/FIMv1b.fasta",
        "csat_prots/FMv1a.fasta",
        "csat_prots/FMv1b.fasta",
        "csat_prots/GERv1a.fasta",
        "csat_prots/GERv1b.fasta",
        "csat_prots/H3S1a.fasta",
        "csat_prots/H3S1b.fasta",
        "csat_prots/H3S7a.fasta",
        "csat_prots/H3S7b.fasta",
        "csat_prots/ITLv1a.fasta",
        "csat_prots/ITLv1b.fasta",
        "csat_prots/KCDv1a.fasta",
        "csat_prots/KCDv1b.fasta",
        "csat_prots/MM3v1a.fasta",
        "csat_prots/MM3v1b.fasta",
        "csat_prots/NLv1a.fasta",
        "csat_prots/NLv1b.fasta",
        "csat_prots/SAN2a.fasta",
        "csat_prots/SAN2b.fasta",
        "csat_prots/SN1v3a.fasta",
        "csat_prots/SN1v3b.fasta",
        "csat_prots/SODLa.fasta",
        "csat_prots/SODLb.fasta",
        "csat_prots/TURv1a.fasta",
        "csat_prots/TURv1b.fasta",
        "csat_prots/WHWa.fasta",
        "csat_prots/WHWb.fasta",
        "csat_prots/PrunusPersica.fasta",
        "csat_prots/MalusDomestica.fasta",
        "csat_prots/RosaChinensis.fasta",
        "csat_prots/FragariaVesca.fasta",
        "csat_prots/LotusJaponicus.fasta"
    ]
}