{
    "proteins": [
        "prots/Bdistachyon.Bd21.HPIv02.helixer.prot.fasta",
        "prots/Tarv1233.a02.helixer.prot.fasta",
        "prots/Rsativus.Okute-Sakurajima.HPIv02.proteins.fasta",
        "prots/Atrichopoda.UCSC.HPIv02.helixer.prot.fasta",
        "prots/Athaliana.Col-0.HPIv02.proteins.fasta",
        "prots/Gmax.Williams82.HPIv02.proteins.fasta",
        "prots/Sbicolor.BTx623.HPIv02.proteins.fasta",
        "prots/Tlatafolia.TL01.HPIv02.proteins.fasta",
        "prots/Taestivum.Chinese_Spring.HPIv02.helixer.prot.fasta",
        "prots/Tarv1136.a02.helixer.prot.fasta",
        "prots/Tdomingensis.TD08.HPIv02.helixer.prot.fasta",
        "prots/Tarv1326.a04.helixer.prot.fasta",
        "prots/Osativa.Kitaake.HPIv02.helixer.prot.fasta",
        "prots/Athaliana.Col-0.HPIv02.helixer.prot.fasta",
        "prots/Tarvense.Ta1014.HPIv02.helixer.prot.fasta",
        "prots/Tarv1036.a02.helixer.prot.fasta",
        "prots/Ljaponica.Gifu.HPIv02.helixer.prot.fasta",
        "prots/Ghirsutum.TM-1.HPIv02.helixer.prot.fasta",
        "prots/Tarv1228.a02.helixer.prot.fasta",
        "prots/Qsuber.1900.HPIv02.helixer.prot.fasta",
        "prots/Ljaponica.Gifu.HPIv02.proteins.fasta",
        "prots/Tarv1195.a02.helixer.prot.fasta",
        "prots/Gmax.wm82a5.helixer.prot.fasta",
        "prots/Tpratense.Milvus_B.HPIv02.helixer.prot.fasta",
        "prots/Gmax.wm82a5.proteins.fasta",
        "prots/Tlatafolia.TL01.HPIv02.helixer.prot.fasta",
        "prots/Gmax.Lee_a3.helixer.prot.fasta",
        "prots/Zmays.B73.HPIv02.proteins.fasta",
        "prots/Osativa.NipponBare.HPIv02.proteins.fasta",
        "prots/Tarv1118.a02.helixer.prot.fasta",
        "prots/Tarv1163.a02.helixer.prot.fasta",
        "prots/Bnapus.Westar.HPIv02.proteins.fasta",
        "prots/Qsuber.1900.HPIv02.proteins.fasta",
        "prots/Osativa.Kitaake.HPIv02.proteins.fasta",
        "prots/Tpratense.Milvus_B.HPIv02.proteins.fasta",
        "prots/Sitalica.Yugu1.HPIv02.helixer.prot.fasta",
        "prots/Bdistachyon.Bd21.HPIv02.proteins.fasta",
        "prots/Atrichopoda.UCSC.HPIv02.proteins.fasta",
        "prots/Tarv1055.a02.helixer.prot.fasta",
        "prots/Bnapus.Westar.HPIv02.helixer.prot.fasta",
        "prots/Gmax.Williams82.HPIv02.helixer.prot.fasta",
        "prots/Tdomingensis.TD08.HPIv02.proteins.fasta",
        "prots/Sbicolor.RTx430.HPIv02.helixer.prot.fasta",
        "prots/Sbicolor.BTx623.HPIv02.helixer.prot.fasta",
        "prots/Tarv1120.a02.helixer.prot.fasta",
        "prots/Sitalica.Yugu1.HPIv02.proteins.fasta",
        "prots/Tarvense.Ta1014.HPIv02.proteins.fasta",
        "prots/Osativa.NipponBare.HPIv02.helixer.prot.fasta",
        "prots/Gmax.Lee_a3.proteins.fasta",
        "prots/Rsativus.Okute-Sakurajima.HPIv02.helixer.prot.fasta",
        "prots/Ghirsutum.TM-1.HPIv02.proteins.fasta",
        "prots/Tarv1067.a01.helixer.prot.fasta",
        "prots/Taestivum.Chinese_Spring.HPIv02.proteins.fasta",
        "prots/Sbicolor.RTx430.HPIv02.proteins.fasta",
        "prots/Tarv1094.a02.helixer.prot.fasta",
        "prots/Tarv2032c.a02.helixer.prot.fasta",
        "prots/Zmays.B73.HPIv02.helixer.prot.fasta"
    ],
    "outbase": "hpi_helixer_test",
    "ortho_opt": "-M msa",
    "safe_pack": true,
    "threads": 32
}