{
	"outbase": "exPVP_HPIv02_orthogroups",
	"threads": 32,
	"ortho_opt": " -M msa -A mafft -T fasttree",
	"safe_pack": true,
	"proteins": [
		"Athaliana.Col-0.fasta",
		"Atrichopoda.UCSC.fasta",
		"Bdistachyon.Bd21.fasta",
		"Bnapus.Westar.fasta",
		"Ghirsutum.TM-1.fasta",
		"Gmax.Williams82.fasta",
		"Ljaponica.Gifu.fasta",
		"Osativa.Kitaake.fasta",
		"Osativa.NipponBare.fasta",
		"PI543243.fasta",
		"PI543246.fasta",
		"PI543247.fasta",
		"PI544069.fasta",
		"PI554646.fasta",
		"PI554647.fasta",
		"PI554648.fasta",
		"PI554649.fasta",
		"PI554650.fasta",
		"PI554652.fasta",
		"PI554654.fasta",
		"PI555457.fasta",
		"PI561926.fasta",
		"PI562621.fasta",
		"PI562622.fasta",
		"PI562623.fasta",
		"PI562624.fasta",
		"PI562625.fasta",
		"PI564085.fasta",
		"PI574398.fasta",
		"PI574406.fasta",
		"PI574407.fasta",
		"PI594354.fasta",
		"PI594355.fasta",
		"PI595221.fasta",
		"PI596332.fasta",
		"PI596567.fasta",
		"PI601264.fasta",
		"PI601415.fasta",
		"PI601552.fasta",
		"PI601553.fasta",
		"PI601554.fasta",
		"PI601555.fasta",
		"PI601556.fasta",
		"PI601557.fasta",
		"PI601716.fasta",
		"PI601717.fasta",
		"PI601718.fasta",
		"PI601719.fasta",
		"PI601720.fasta",
		"PI601721.fasta",
		"PI601743.fasta",
		"PI601744.fasta",
		"PI601756.fasta",
		"PI602599.fasta",
		"PI602600.fasta",
		"Qsuber.1900.fasta",
		"Rsativus.Okute-Sakurajima.fasta",
		"Sbicolor.BTx623.fasta",
		"Sbicolor.RTx430.fasta",
		"Sitalica.Yugu1.fasta",
		"Taestivum.Chinese_Spring.fasta",
		"Tarvense.Ta1014.fasta",
		"Tdomingensis.TD08.fasta",
		"Tlatafolia.TL01.fasta",
		"Tpratense.Milvus_B.fasta",
		"Zmays.B73.fasta"
    ]
}
