{
    "threads": 32,
    "proteins": [
"Osativa.fasta",
"Brassica_napus_en.fasta",
"Pennycress_phyto.fasta",
"BTx623_en.fasta",
"BTX623_ref.fasta",
"NCBIv3.fasta",
"RIO.JGIv2.0.fasta",
"Sbicolor_454_v3.1.1.fasta",
"PI154844_pub.fasta",
"PI154987_pub.fasta",
"PI156178_pub.fasta",
"PI180348_pub.fasta",
"PI276816_pub.fasta",
"PI276837_pub.fasta",
"PI329301_pub.fasta",
"PI329501_pub.fasta",
"PI513676_pub.fasta",
"PI533766_pub.fasta",
"PI533869_pub.fasta",
"PI534133_pub.fasta",
"PI543243_exp.fasta",
"PI543246_exp.fasta",
"PI543247_exp.fasta",
"PI544069_exp.fasta",
"PI554647_exp.fasta",
"PI554648_exp.fasta",
"PI554649_exp.fasta",
"PI554650_exp.fasta",
"PI554652_exp.fasta",
"PI554654_exp.fasta",
"PI555457_exp.fasta",
"PI561926_exp.fasta",
"PI562621_exp.fasta",
"PI562623_exp.fasta",
"PI562624_exp.fasta",
"PI562625_exp.fasta",
"PI564085_exp.fasta",
"PI564163_pub.fasta",
"PI565121_pub.fasta",
"PI569459_pub.fasta",
"PI570071_pub.fasta",
"PI574398_exp.fasta",
"PI574406_exp.fasta",
"PI574407_exp.fasta",
"PI576434_pub.fasta",
"PI585966_pub.fasta",
"PI594354_exp.fasta",
"PI594355_exp.fasta",
"PI595221_exp.fasta",
"PI596332_exp.fasta",
"PI596567_exp.fasta",
"PI597980_pub.fasta",
"PI601264_exp.fasta",
"PI601415_exp.fasta",
"PI601552_exp.fasta",
"PI601553_exp.fasta",
"PI601554_exp.fasta",
"PI601555_exp.fasta",
"PI601556_exp.fasta",
"PI601557_exp.fasta",
"PI601716_exp.fasta",
"PI601717_exp.fasta",
"PI601718_exp.fasta",
"PI601719_exp.fasta",
"PI601720_exp.fasta",
"PI601721_exp.fasta",
"PI601743_exp.fasta",
"PI601744_exp.fasta",
"PI601756_exp.fasta",
"PI602599_exp.fasta",
"PI602600_exp.fasta",
"PI655981_pub.fasta",
"PI655988_pub.fasta",
"PI656015_pub.fasta",
"PI656023_pub.fasta",
"PI656027_pub.fasta",
"PI656031_pub.fasta",
"PI656044_pub.fasta",
"PI656050_pub.fasta",
"PI656057_pub.fasta",
"PI656111_pub.fasta",
"PI660557_pub.fasta",
"PI660563_pub.fasta",
"PI660565_pub.fasta",
"Zmays.fasta",
"Amborella.fasta",
"Athaliana.fasta"
    ],
    "ortho_opt": " -M msa -A mafft -T fasttree",
    "safe_pack": true
}
